{
  "openapi": "3.0.0",
  "info": {
    "version": "1.0.0",
    "title": "Quotable API",
    "license": {
      "name": "MIT"
    }
  },
  "servers": [
    {
      "url": "https://dummyjson.com/quotes"
    }
  ],
  "paths": {
    "/random": {
      "$ref": "./paths/random.json"
    }
  }
}