{
  "openapi": "3.0.0",
  "info": {
    "version": "1.0.0",
    "title": "The Quote Services",
    "description": "A webservice where you can get a random quote from a random source!",
    "license": {
      "name": "MIT"
    }
  },
  "servers": [
    {
      "url": "/"
    },
    {
      "url": "https://quote-service-backend.onrender.com"
    }
  ],
  "paths": {
    "/quotes": {
      "$ref": "./paths/quotes.json"
    },
    "/likes/{source}/{id}": {
      "$ref": "./paths/likes.json"
    }
  }
}