{
  "type": "object",
  "properties": {
    "id": {
      "type": "string"
    },
    "saying": {
      "type": "string"
    },
    "author": {
      "type": "string"
    },
    "source": {
      "type": "string"
    }
  }
}